my_blog - Exercices Semaine 3
…
Convertir la colonne Sex en variable catégorielle avec la fonction mutate

#Importation des libraires 
library(dplyr)
library(tidyr)

tibble_olympics_athletes <- tibble_olympics_athletes %>% mutate(Sex = as.factor(Sex))

Créer deux colonnes à partir de la colonne Games

help("separate_wider_delim")

separate_wider_delim(tibble_olympics_athletes, cols = Games, delim= " ", names=c("Year", "isSummer"), cols_remove = FALSE)

# A tibble: 269,731 × 15
      ID Name   Sex     Age Height Weight Team  NOC   Year  isSummer Games City 
   <int> <chr>  <fct> <int>  <int>  <dbl> <chr> <chr> <chr> <chr>    <chr> <chr>
 1     1 A Dij… M        24    180     80 China CHN   1992  Summer   1992… Barc…
 2     2 A Lam… M        23    170     60 China CHN   2012  Summer   2012… Lond…
 3     3 Gunna… M        24     NA     NA Denm… DEN   1920  Summer   1920… Antw…
 4     4 Edgar… M        34     NA     NA Denm… DEN   1900  Summer   1900… Paris
 5     5 Chris… F        21    185     82 Neth… NED   1988  Winter   1988… Calg…
 6     5 Chris… F        21    185     82 Neth… NED   1988  Winter   1988… Calg…
 7     5 Chris… F        25    185     82 Neth… NED   1992  Winter   1992… Albe…
 8     5 Chris… F        25    185     82 Neth… NED   1992  Winter   1992… Albe…
 9     5 Chris… F        27    185     82 Neth… NED   1994  Winter   1994… Lill…
10     5 Chris… F        27    185     82 Neth… NED   1994  Winter   1994… Lill…
# ℹ 269,721 more rows
# ℹ 3 more variables: Sport <chr>, Event <chr>, Medal <chr>

Créer deux colonnes à partir de la colonne Games. La première colonne Year sera une colonne de type integer contenant l’année des jeux. La deuxième colonne isSummer sera une colonne booléenne qui indiquera si les jeux sont des jeux d’été ou d’hiver

any(is.na(tibble_olympics_athletes$Age)) #Ce code permet de vérifier la présence des NA's au sein de la colonne Age

[1] TRUE

tibble_olympics_athletes %>% group_by(Games) %>%
  summarise(mean_age=mean(Age,na.rm=TRUE)) #Ce code calcule la moyenne d'age pour chacune des éditions des JO, en excluant les valeurs manquantes du calcul. 

# A tibble: 51 × 2
   Games       mean_age
   <chr>          <dbl>
 1 1896 Summer     23.6
 2 1900 Summer     28.9
 3 1904 Summer     26.7
 4 1906 Summer     27.1
 5 1908 Summer     27.0
 6 1912 Summer     27.5
 7 1920 Summer     29.3
 8 1924 Summer     28.1
 9 1924 Winter     27.6
10 1928 Summer     28.0
# ℹ 41 more rows
…
Discipline des JO d’été dont la taille des athlètes féminines est la plus grande ? Quelle a été cette discipline au cours de chacune des éditions ? Nombre de fois où chaque discipline a été la discipline avec les plus grandes athlètes

tibble_olympics_athletes %>% filter(Sex=="F") %>% arrange(desc(Height)) %>% slice(1) %>% select(Height, Sport) #On filtre les femmes, on ordonne et sélectionne la ligne ainsi que les variables d'intérêt. 

# A tibble: 1 × 2
  Height Sport     
   <int> <chr>     
1    213 Basketball

La discipline dont la taille des athlètes féminines est la plus grande est le basketball.

tibble_olympics_athletes %>% filter(Sex=="F" & !is.na(Height)) %>% group_by(Games) %>% 
  arrange(desc(Height)) %>% slice(1) %>% select(Games, Height, Sport) #On filtre pour les femmes et pour la taille sans valeurs manquantes, puis on calcule la taille plus grande pour chaque game et on sélectionne la colonne du sport correspondant. 

# A tibble: 45 × 3
# Groups:   Games [45]
   Games       Height Sport         
   <chr>        <int> <chr>         
 1 1920 Summer    175 Diving        
 2 1924 Summer    175 Fencing       
 3 1924 Winter    165 Figure Skating
 4 1928 Summer    183 Fencing       
 5 1928 Winter    165 Figure Skating
 6 1932 Summer    183 Fencing       
 7 1932 Winter    168 Figure Skating
 8 1936 Summer    183 Fencing       
 9 1936 Winter    168 Figure Skating
10 1948 Summer    180 Athletics     
# ℹ 35 more rows
…
