Présentation du blog - Prévision de la météorologie
…
La librarie peut être importée de la façon suivante, ce qui permet d’utiliser ses fonctions pour avoir accès aux données météorologiques.

library(olympicsWeather)

La fonction get_forecast est la fonction principale de la librairie. Elle retourne un dataframe avec 5 colonnes relatives à la date et heure, la température, la température ressentie, la probabilité de précipitation et la précipitation effective. Ci-dessous, on trouve trois exemples d’implémentation pour le stade de France, le Tahiti et les coordonées géographiques 43.276703, 5.334791. Vous pouvez utiliser la fonction get_forecast_visualisation pour profiter d’une visualisation graphique et intéractive des données sous R. Dans ce blog, vous trouverez une version statique sur la période 04/03/2024-10 - 10/03/2024.

Prévision de la météo pour le stade de France

Le Stade de France acceuillera la manisfestation sportive des Jeux Olympiques à Paris avec une capacité d’acceuil de 77 083 spectateurs. L’athléthisme, le rugby et le para-athlétisme y seront célébrés.

meteo_stade_france <- get_forecast("stade de France")
meteo_stade_france

# A tibble: 168 × 5
   data_heure     temperature_celsius temperature_ressenti…¹ precipitation_proba
   <chr>                        <dbl>                  <dbl>               <int>
 1 2024-03-10T00…                 8                      6.2                  32
 2 2024-03-10T01…                 8                      5.4                  27
 3 2024-03-10T02…                 7.8                    5.4                  21
 4 2024-03-10T03…                 7.9                    5.9                  16
 5 2024-03-10T04…                 7.5                    5.6                  21
 6 2024-03-10T05…                 7.5                    5.8                  27
 7 2024-03-10T06…                 7.5                    5.5                  32
 8 2024-03-10T07…                 7.4                    5.8                  32
 9 2024-03-10T08…                 7.4                    5                    32
10 2024-03-10T09…                 7.8                    6.1                  32
# ℹ 158 more rows
# ℹ abbreviated name: ¹​temperature_ressentie_celsius
# ℹ 1 more variable: precipitation <dbl>
…
meteo_Tahiti <- get_forecast("Tahiti")
meteo_Tahiti

# A tibble: 168 × 5
   data_heure     temperature_celsius temperature_ressenti…¹ precipitation_proba
   <chr>                        <dbl>                  <dbl>               <int>
 1 2024-03-10T00…                17.1                   19.4                 100
 2 2024-03-10T01…                16.9                   18.5                 100
 3 2024-03-10T02…                16.8                   18.6                 100
 4 2024-03-10T03…                16.7                   18.5                 100
 5 2024-03-10T04…                16.7                   18.1                 100
 6 2024-03-10T05…                16.9                   18.2                 100
 7 2024-03-10T06…                17.4                   19                   100
 8 2024-03-10T07…                17.3                   18.9                  99
 9 2024-03-10T08…                17.3                   18.6                  98
10 2024-03-10T09…                16.9                   18.4                  97
# ℹ 158 more rows
# ℹ abbreviated name: ¹​temperature_ressentie_celsius
# ℹ 1 more variable: precipitation <dbl>
…
Prévision de la météo pour les coordonnées 43.276703, 5.334791

Les coordonées 43.276703, 5.334791 correspondent à une adresse située à Marseille, au Sud de la France. Cette ville recevra les épreuves de voile ainsi que 10 matches de tournoi de football.

meteo_coordonnées <- get_forecast("43.276703,5.334791")
meteo_coordonnées

# A tibble: 168 × 5
   data_heure     temperature_celsius temperature_ressenti…¹ precipitation_proba
   <chr>                        <dbl>                  <dbl>               <int>
 1 2024-03-10T00…                 5.5                    3.6                   3
 2 2024-03-10T01…                 5                      3.3                   3
 3 2024-03-10T02…                 4.7                    2.6                   3
 4 2024-03-10T03…                 4.3                    2.3                   3
 5 2024-03-10T04…                 3.9                    1.6                   2
 6 2024-03-10T05…                 4.2                    1.8                   1
 7 2024-03-10T06…                 3.9                    1.8                   0
 8 2024-03-10T07…                 3.5                    1.3                   2
 9 2024-03-10T08…                 5.1                    3.2                   4
10 2024-03-10T09…                 7.9                    6.1                   6
# ℹ 158 more rows
# ℹ abbreviated name: ¹​temperature_ressentie_celsius
# ℹ 1 more variable: precipitation <dbl>
…
