my_blog - Package Olympics Weather
…
# Installing packages --------------------------------------------------------
- Installing remotes ...                        OK [linked from cache]
Successfully installed 1 package in 11 milliseconds.

Une fois que le package remotes est installé, vous pouvez utiliser la commande suivante pour installer olympicsWeather :

remotes::install_github("YavaVilar/olympicsWeather")

Prévision de la météo pour le stade de France

meteo_stade_france <- get_forecast("stade de France")

meteo_stade_france

# A tibble: 168 × 5
   data_heure     temperature_celsius temperature_ressenti…¹ precipitation_proba
   <chr>                        <dbl>                  <dbl>               <int>
 1 2024-03-04T00…                 3.7                    1.3                   0
 2 2024-03-04T01…                 3.5                    1.1                   0
 3 2024-03-04T02…                 3.1                    0.6                   0
 4 2024-03-04T03…                 2.6                    0.1                   0
 5 2024-03-04T04…                 2.3                   -0.2                   0
 6 2024-03-04T05…                 1.9                   -0.9                   0
 7 2024-03-04T06…                 1.7                   -0.6                   0
 8 2024-03-04T07…                 1.9                   -0.5                   0
 9 2024-03-04T08…                 2.6                    0.4                   0
10 2024-03-04T09…                 5.9                    3.3                   0
# ℹ 158 more rows
# ℹ abbreviated name: ¹​temperature_ressentie_celsius
# ℹ 1 more variable: precipitation <dbl>

Prévision de la météo pour Tahiti

meteo_Tahiti <- get_forecast("Tahiti")
meteo_Tahiti

# A tibble: 168 × 5
   data_heure     temperature_celsius temperature_ressenti…¹ precipitation_proba
   <chr>                        <dbl>                  <dbl>               <int>
 1 2024-03-04T00…                17.6                   18.8                  81
 2 2024-03-04T01…                17.7                   18.7                  87
 3 2024-03-04T02…                17.7                   18.5                  94
 4 2024-03-04T03…                17.8                   18.7                 100
 5 2024-03-04T04…                17.8                   18.7                  96
 6 2024-03-04T05…                17.7                   18.8                  91
 7 2024-03-04T06…                17.8                   18.3                  87
 8 2024-03-04T07…                17.8                   18.4                  89
 9 2024-03-04T08…                17.8                   18.5                  92
10 2024-03-04T09…                17.8                   18.6                  94
# ℹ 158 more rows
# ℹ abbreviated name: ¹​temperature_ressentie_celsius
# ℹ 1 more variable: precipitation <dbl>

Prévision de la météo pour les coordonnées 43.276703, 5.334791

meteo_coordonnées <- get_forecast("43.276703,5.334791")
meteo_coordonnées

# A tibble: 168 × 5
   data_heure     temperature_celsius temperature_ressenti…¹ precipitation_proba
   <chr>                        <dbl>                  <dbl>               <int>
 1 2024-03-04T00…                 1.4                   -2                     0
 2 2024-03-04T01…                 0.9                   -2.4                   0
 3 2024-03-04T02…                 0.4                   -2.8                   0
 4 2024-03-04T03…                -0.1                   -3.1                   0
 5 2024-03-04T04…                -0.2                   -3.4                   0
 6 2024-03-04T05…                -0.4                   -3.5                   0
 7 2024-03-04T06…                -1.4                   -4.6                   0
 8 2024-03-04T07…                -1.2                   -4.3                   0
 9 2024-03-04T08…                 0.4                   -2.6                   0
10 2024-03-04T09…                 4.9                    1.9                   0
# ℹ 158 more rows
# ℹ abbreviated name: ¹​temperature_ressentie_celsius
# ℹ 1 more variable: precipitation <dbl>
